// https://api.themoviedb.org/3/movie/popular?api_key=
{
  "page": 1,
  "total_results": 19820,
  "total_pages": 991,
  "results": [
    {
      "vote_count": 963,
      "id": 351286,
      "video": false,
      "vote_average": 6.8,
      "title": "Jurassic World: Fallen Kingdom",
      "popularity": 351.814731,
      "poster_path": "/c9XxwwhPHdaImA2f1WEfEsbhaFB.jpg",
      "original_language": "en",
      "original_title": "Jurassic World: Fallen Kingdom",
      "genre_ids": [
        28,
        12,
        878
      ],
      "backdrop_path": "/gBmrsugfWpiXRh13Vo3j0WW55qD.jpg",
      "adult": false,
      "overview": "A volcanic eruption threatens the remaining dinosaurs on the island of Isla Nublar, where the creatures have freely roamed for several years after the demise of an animal theme park known as Jurassic World. Claire Dearing, the former park manager, has now founded the Dinosaur Protection Group, an organization dedicated to protecting the dinosaurs. To help with her cause, Claire has recruited Owen Grady, a former dinosaur trainer who worked at the park, to prevent the extinction of the dinosaurs once again.",
      "release_date": "2018-06-06"
    },
    {
      "vote_count": 2485,
      "id": 383498,
      "video": false,
      "vote_average": 7.7,
      "title": "Deadpool 2",
      "popularity": 166.878936,
      "poster_path": "/to0spRl1CMDvyUbOnbb4fTk3VAd.jpg",
      "original_language": "en",
      "original_title": "Deadpool 2",
      "genre_ids": [
        28,
        35,
        878
      ],
      "backdrop_path": "/3P52oz9HPQWxcwHOwxtyrVV1LKi.jpg",
      "adult": false,
      "overview": "Wisecracking mercenary Deadpool battles the evil and powerful Cable and other bad guys to save a boy's life.",
      "release_date": "2018-05-15"
    }
  ]
}